<?xml version="1.0" encoding="utf-8"?>
<!-- Generator: Adobe Illustrator 21.0.2, SVG Export Plug-In . SVG Version: 6.00 Build 0)  -->
<svg version="1.1" id="Layer_1" xmlns="http://www.w3.org/2000/svg" xmlns:xlink="http://www.w3.org/1999/xlink" x="0px" y="0px"
	 viewBox="0 0 85 85" style="enable-background:new 0 0 85 85;" xml:space="preserve">
<style type="text/css">
	.st0{fill:#FFFFFF;}
</style>
<path class="st0" d="M82.9,63.8c0.1,2-1.1,3.8-3,4.4c-0.6,0.2-1.2,0.3-1.8,0.3h-21c-0.5,0-0.9,0.2-1.2,0.5L45.7,79.3l-2.4,2.4
	c-0.3,0.3-0.5,0.4-0.7,0.4s-0.4-0.1-0.7-0.4l-2.6-2.6c-3.4-3.3-6.8-6.7-10.1-10c-0.3-0.4-0.8-0.6-1.3-0.5H7c-2.7,0-4.9-2.2-4.9-4.9
	l0,0l0,0c0-13.9,0-27.9,0-41.8V7C2,5,3.2,3.1,5.1,2.4c0.6-0.2,1.1-0.3,1.7-0.3h71.2c2-0.1,3.8,1.1,4.5,3c0.2,0.6,0.3,1.2,0.3,1.9v20
	L82.9,63.8z M85,6.9c0-1-0.2-2-0.6-2.9c-1.1-2.5-3.6-4.1-6.3-4H6.9C5.8,0,4.7,0.2,3.6,0.8C1.3,2-0.1,4.3,0,6.9v56.8
	c0,0.8,0.1,1.7,0.4,2.5c1,2.8,3.6,4.6,6.6,4.5h20c0.5,0,0.9,0.2,1.3,0.5c4.4,4.4,8.8,8.8,13.2,13.2c0.7,0.7,1.2,0.7,2,0l2.5-2.5
	l10.7-10.7c0.3-0.3,0.8-0.5,1.2-0.5h20.2c1.1,0,2.2-0.2,3.2-0.8c2.3-1.1,3.7-3.5,3.6-6.1L85,6.9"/>
<path class="st0" d="M65.1,35.7c-4.9,5-9.9,10-14.8,14.8l-7.1,7.1c-0.3,0.3-0.7,0.4-1.1,0.2c-0.1,0-0.1-0.1-0.2-0.2
	C34.8,50.3,27.5,43,20.3,35.8c-1.5-1.4-2.5-3.2-3.1-5.1c-0.2-0.8-0.3-1.5-0.4-2.3c0-0.3-0.1-0.7-0.1-1v-0.1c0-5.1,3.3-9.6,8.1-11.2
	c4.2-1.5,9-0.4,12.1,2.8c1.1,1.1,2.2,2.1,3.2,3.2c0.5,0.5,1.1,1.1,1.6,1.6c0.8,0.8,1.3,0.8,2,0l1.4-1.4c1.1-1.1,2.3-2.3,3.4-3.4
	c2.4-2.5,5.9-3.8,9.3-3.4c4.4,0.2,8.3,3.1,9.9,7.2C69.6,27.2,68.6,32.4,65.1,35.7 M57.7,13.4c-3.7-0.3-7.3,1-10,3.4
	c-1,0.9-2,1.9-3,2.9L43.4,21c-0.6,0.6-0.9,0.6-1.5,0l-1.2-1.2l-2.2-2.2c-1.8-1.8-4.1-3.1-6.5-3.8c-2.8-0.7-5.8-0.6-8.5,0.5
	c-5.4,2.1-8.9,7.2-8.9,13v0.3h-0.1c0,0.3,0.1,0.5,0.1,0.8c0.1,0.8,0.2,1.6,0.4,2.4c0.6,2.5,1.9,4.7,3.8,6.5l22.9,22.9
	c0.3,0.5,1,0.6,1.5,0.3c0.1-0.1,0.2-0.2,0.3-0.3l23-23c5.5-5.4,5.6-14.2,0.2-19.7C64.3,15.1,61.1,13.7,57.7,13.4"/>
</svg>
