<?xml version="1.0" encoding="utf-8"?>
<!-- Generator: Adobe Illustrator 21.0.2, SVG Export Plug-In . SVG Version: 6.00 Build 0)  -->
<svg version="1.1" id="Layer_1" xmlns="http://www.w3.org/2000/svg" xmlns:xlink="http://www.w3.org/1999/xlink" x="0px" y="0px"
	 viewBox="0 0 140 140" style="enable-background:new 0 0 140 140;" xml:space="preserve">
<style type="text/css">
	.st0{fill:#F6A01A;}
</style>
<path class="st0" d="M66.4,82.4L66.4,82.4C52.5,81.6,41,74.1,33.8,61.1c-0.7-1.4-1.4-2.9-1.9-4.4c-0.2-0.5-0.4-1-0.6-1.5
	c-0.2-0.5-0.1-1,0.2-1.4c2.4-2.9,4.8-5.7,7.2-8.5c0.4-0.4,1-0.5,1.5-0.3c2.5,1.3,5.4,1.2,7.9-0.1c0.5-0.2,1.2-0.1,1.6,0.3
	c2.7,2.7,5.4,5.3,8.1,8l3.5,3.4c0.4,0.4,0.6,1,0.4,1.6c-0.7,2.3-0.4,4.8,0.8,6.8c1.3,2.1,3.3,3.7,5.8,4.2c4.5,0.9,9-1.8,10.3-6.2
	c0.7-2.3,0.4-4.7-0.8-6.8c-0.4-0.6-0.3-1.3,0.1-1.8c3.4-5,6.7-10.1,10.1-15.1c0.3-0.6,1-0.9,1.7-0.8c3.2,0.7,6.5-0.5,8.5-3.1
	c0.5-0.7,1.5-1,2.3-0.6c1.1,0.4,2.2,0.7,3.2,1.1s2.2,0.7,3.3,1.1c0.5,0.2,0.9,0.7,1.1,1.2c0.5,3.3,0.5,6.7,0,10.1
	c-0.8,5.7-2.8,11.2-6,16.1C97.3,71.5,90.5,77,82.5,79.9c-4.3,1.7-9.4,2.4-15.9,2.4H66.4z M49.4,37.1c0,2.9-2.4,5.3-5.3,5.3l0,0
	c-2.9,0-5.3-2.4-5.3-5.4c0-2.9,2.4-5.2,5.3-5.3l0,0C47,31.8,49.4,34.1,49.4,37.1 M75.3,60.6c0,2.9-2.4,5.3-5.3,5.3l0,0
	c-2.9,0-5.3-2.4-5.3-5.3s2.4-5.3,5.3-5.3l0,0C72.9,55.3,75.3,57.6,75.3,60.6 M96.5,30c0,2.9-2.4,5.3-5.3,5.3l0,0
	c-2.9,0-5.3-2.4-5.4-5.3c0-2.9,2.4-5.3,5.3-5.3c0,0,0,0,0,0l0,0C94.1,24.7,96.5,27.1,96.5,30 M30,50.1l-0.4-1.8
	c-1.5-12.4,1.8-23,9.8-31.7C50.3,4.9,63.6,1,79,4.9c13.5,3.5,24.1,13.9,27.7,27.4l0.3,1l-1.5-0.4c-0.3-0.1-0.6-0.2-0.9-0.3l-1.5-0.5
	l-2-0.6c-0.6-0.2-1-0.7-1-1.4c0-4.9-3.9-8.8-8.8-8.8c-3.6,0-6.9,2.2-8.2,5.6c-1.2,3.1-0.5,6.5,1.7,8.9c0.5,0.5,0.6,1.3,0.1,1.8
	c-3.2,4.8-6.4,9.5-9.6,14.3c-0.4,0.7-1.2,0.9-1.8,0.6c-2.8-1.3-6.1-0.9-8.6,1c-0.3,0.2-0.6,0.3-1,0.4c-0.4,0-0.7-0.2-1-0.5
	c-3.5-3.6-7.1-7.2-10.7-10.7c-0.5-0.4-0.7-1.2-0.3-1.8c1.2-2.3,1.3-4.9,0.3-7.3c-1.1-2.4-3.1-4.3-5.7-5c-2.3-0.7-4.8-0.4-6.9,0.9
	c-4.1,2.4-5.5,7.5-3.4,11.7c0.3,0.5,0.2,1.1-0.1,1.6c-1.3,1.7-2.7,3.3-4.1,4.9l-0.8,0.9L30,50.1 M12.6,80.8c-1,1-2.3,1.6-3.7,1.6
	l0,0c-2.9,0-5.3-2.3-5.4-5.3c0-1.4,0.5-2.8,1.5-3.8c1-1,2.3-1.6,3.8-1.6l0,0c2.9,0,5.3,2.4,5.3,5.3C14.1,78.5,13.5,79.8,12.6,80.8
	 M127.4,40.3c1-1,2.3-1.6,3.7-1.6l0,0c2.9,0,5.3,2.4,5.4,5.3c0,2.9-2.4,5.3-5.3,5.3l0,0l0,0c-2.9,0-5.3-2.4-5.3-5.4
	C125.9,42.7,126.4,41.3,127.4,40.3 M88.2,81.2c15.4-7.7,24.6-23.9,23.5-41c0-0.2,0-0.3,0-0.5l0.1-1l1.2,0.4l1,0.3l2.6,0.8l4.8,1.6
	c0.7,0.2,1.2,0.9,1.1,1.7c0,1,0.1,2.1,0.3,3.1c0.7,2.3,2.2,4.2,4.3,5.3c2.2,1.1,4.7,1.3,7,0.5c2.3-0.8,4.2-2.5,5.1-4.8
	c1-2.2,1-4.7,0.1-6.9c-1.8-4.5-6.9-6.6-11.4-4.8c-1.3,0.5-2.4,1.3-3.3,2.3c-0.4,0.5-1.1,0.7-1.8,0.5l-2.7-0.9
	c-2.8-0.9-5.6-1.9-8.4-2.9c-0.5-0.2-0.8-0.5-1-1c-0.2-0.7-0.4-1.3-0.6-2s-0.3-1.3-0.5-1.9c-2-6.4-5.4-12.2-10.1-17
	C84-3.1,58.6-4.4,41.4,9.9c-9.5,7.9-15.1,19.5-15.5,31.8c-0.1,3.5,0.3,7.1,1.1,10.5c0.2,0.7,0,1.5-0.5,2c-0.8,0.9-1.6,1.9-2.4,2.9
	l-3.5,4.2l-6.3,7.4c-0.4,0.6-1.1,0.7-1.7,0.4c-0.9-0.4-1.9-0.7-2.8-0.8c-4.8-0.5-9.2,3-9.7,7.8c-0.5,4.8,3,9.2,7.8,9.7
	c0.9,0.1,1.9,0.1,2.8-0.1c2.7-0.6,4.9-2.3,6.1-4.8c1.2-2.4,1.1-5.3-0.1-7.7c-0.4-0.7-0.3-1.6,0.3-2.2c2.4-2.8,4.9-5.7,7.3-8.6
	l2.9-3.4l0.4-0.4l0.8-1c0,0,0.4,0.8,0.6,1c0.1,0.2,0.2,0.3,0.2,0.5c2.5,5.9,6.2,11.3,11,15.5c0.7,0.4,0.9,1.4,0.5,2.1
	c-0.1,0.1-0.1,0.2-0.2,0.3c-7.3,10.3-14.7,20.7-22,31l-6.7,9.5c-2.8,4-5.6,8-8.5,11.9c-0.1,0.1-0.1,0.1-0.1,0.2l0.2,0.1
	c0.9,0.5,1.7,1.1,2.5,1.8l0.2,0.1l0.1-0.2c1.3-1.9,2.7-3.8,4-5.6l4.6-6.5c9.5-13.4,19-26.8,28.5-40.2c0.3-0.7,1.1-1,1.8-0.7
	c0.1,0.1,0.3,0.1,0.4,0.2c6.4,4.3,13.9,6.8,21.7,7.1C74.2,86.1,81.6,84.6,88.2,81.2"/>
<path class="st0" d="M136.2,136.2c-0.3,0.3-0.7,0.4-1.1,0.4h-0.1c-2.5,0-5,0-7.9,0c-0.4,0-0.7-0.1-1-0.3c-0.2-0.3-0.4-0.6-0.3-1
	c0-8.9,0-17.8,0-26.8c-0.1-0.7,0.4-1.3,1-1.4c0.1,0,0.2,0,0.4,0c2.7,0,5.4,0,7.9,0c0.6-0.1,1.3,0.3,1.4,1c0,0.1,0,0.3,0,0.4
	c0,3.4,0,6.9,0,10.3v6.2c0,3.4,0,6.7,0,10.1C136.6,135.5,136.5,135.9,136.2,136.2 M122.1,136.2c-0.3,0.2-0.6,0.4-1,0.3H121
	c-2.5,0-5.2,0-7.8,0c-0.4,0-0.8-0.1-1.1-0.3c-0.3-0.3-0.4-0.7-0.3-1.1c0-8.4,0-16.8,0-25.2V73.3c0-1.3,0.3-1.6,1.6-1.6h2.2
	c1.8,0,3.7,0,5.5,0c0.4,0,0.7,0.1,1,0.3c0.2,0.3,0.4,0.6,0.3,1c0,20.7,0,41.3,0,62C122.4,135.5,122.3,135.9,122.1,136.2
	 M108.3,114.2L108.3,114.2v4c0,5.6,0,11.3,0,16.9c0,0.4-0.1,0.8-0.4,1.2c-0.3,0.3-0.7,0.4-1.1,0.4h-0.1c-2.3,0-4.8,0-7.8,0
	c-0.7,0.1-1.3-0.3-1.4-1c0-0.1,0-0.2,0-0.4c0-14.4,0-28.8,0-43.2c0-0.4,0.1-0.7,0.3-1c0.3-0.2,0.6-0.3,1-0.3c2.9,0,5.4,0,7.8,0
	c0.4,0,0.8,0.1,1.1,0.3c0.3,0.3,0.4,0.7,0.3,1.1c0,5.6,0,11.3,0,16.9L108.3,114.2z M93.8,136.2c-0.3,0.2-0.6,0.4-1,0.3l0,0
	c-2.7,0-5.3,0-7.9,0c-0.7,0.1-1.3-0.3-1.4-1c0-0.1,0-0.2,0-0.4c0-3.7,0-7.4,0-11.1v-7.1c0-3.6,0-7.2,0-10.7c0-0.4,0.1-0.8,0.4-1.2
	c0.3-0.3,0.7-0.4,1.2-0.4c2.3,0,4.9,0,7.8,0c0.4,0,0.7,0.1,1,0.3c0.2,0.3,0.4,0.6,0.3,1c0,9.7,0,19.4,0,29.1
	C94.2,135.4,94.1,135.8,93.8,136.2 M80,135.1c0,0.4-0.1,0.7-0.3,1c-0.3,0.2-0.6,0.3-0.9,0.3l0,0c-2.7,0-5.4,0-8.1,0
	c-0.4,0-0.7-0.1-1-0.3c-0.2-0.3-0.4-0.6-0.3-1c0-2.1,0-4.3,0-6.4V124c0-2.1,0-4.2,0-6.3c0-0.4,0.1-0.8,0.3-1.1
	c0.3-0.3,0.7-0.4,1.1-0.3c2.3,0,4.8,0,7.9,0c0.4,0,0.7,0.1,1,0.3c0.2,0.3,0.4,0.6,0.3,1C80.1,123.4,80.1,129.2,80,135.1 M65.9,135.1
	c0,0.3-0.1,0.7-0.3,0.9c-0.3,0.2-0.6,0.3-1,0.3c-2.7,0-5.4,0-8.2,0l0,0c-0.3,0-0.7-0.1-0.9-0.3c-0.2-0.3-0.4-0.6-0.3-1
	c0-1,0-2,0-2.9v-1.8l0,0V130c0-0.9,0-1.9,0-2.8c-0.1-0.6,0.3-1.2,0.9-1.3c0.1,0,0.2,0,0.3,0c2.7,0,5.4,0,8.2,0
	c0.3,0,0.7,0.1,0.9,0.3c0.2,0.3,0.4,0.6,0.3,1c0,2.7,0,5.4,0,8.1 M137.9,103.6h-10.5c-0.6,0-1,0-1.3-0.3s-0.3-0.7-0.3-1.3V70.4
	c0-1.4-0.6-2.1-2.1-2.1h-13.3c-1.6,0-2.2,0.6-2.2,2.2v3.1c0,4,0,8,0,12.1c0,0.4-0.1,0.8-0.4,1.2c-0.3,0.3-0.7,0.4-1.1,0.3
	c-3.1,0-6.2,0-9.3,0h-1.3c-1-0.1-1.9,0.6-2,1.5c0,0.2,0,0.3,0,0.5v1.3c0,3.1,0,6.2,0,9.3c0,0.4-0.1,0.8-0.3,1.1
	c-0.3,0.3-0.7,0.4-1.1,0.3c-3.2,0-6.4,0-9.6,0h-1.1c-1-0.1-1.9,0.6-2,1.5c0,0.2,0,0.3,0,0.5v1.1c0,2.4,0,4.9,0,7.3
	c0.1,0.7-0.3,1.3-1,1.4c-0.1,0-0.3,0-0.4,0c-3.6,0-7.2,0-10.8,0c-1-0.1-1.8,0.6-1.9,1.6c0,0.1,0,0.2,0,0.3v1c0,1.6,0,3.3,0,4.9
	c0.2,0.7-0.3,1.4-1,1.6c-0.2,0-0.4,0-0.5,0c-1.7,0-3.3,0-5,0h-5.7c-1-0.1-1.8,0.6-1.9,1.6c0,0.1,0,0.3,0,0.4c0,4.6,0,9.2,0,13.8
	c0,0.2,0,0.5,0.1,0.7c0.3,0.8,1.1,1.3,2,1.2h84c1,0.2,1.9-0.5,2.1-1.5c0-0.2,0-0.4,0-0.6c0-10.8,0-21.6,0-32.4c0.1-1-0.6-1.9-1.5-2
	C138.3,103.6,138.1,103.6,137.9,103.6"/>
</svg>
